{
  "genesis": {
    "config" : {
      "chainId" : 7059,
      "constantinoplefixblock" : 0,
      "ibft2" : {
        "blockperiodseconds" : 2,
        "epochlength" : 30000,
        "requesttimeoutseconds" : 10
      }
    },
    "gasLimit" : "0x1fffffffffffff",
    "alloc" : {
      "0x1f79d64e8585df9a5ccd943b252fd7d1ddb58e23" : {
        "privateKey" : "3833e91e92c9d57e6ac4b1f295f9a4d01145d5f29852a1363147b93db2335755",
        "comment" : "test account1, have eth balance e+21",
        "balance" : "0x3635C9ADC5DEA00000"
      },
      "0x16d9d423d2508d1f471c7bca7f657ef3da3292ca": {
        "privateKey": "27688b88b5b1a379aede85e5084e6b0be6ddb7049359db477a23645d4fb1ca76",
        "comment": "test account2, have eth balance e+21",
        "balance": "0x3635C9ADC5DEA00000"
      },
      "0xba8ba3735281e233b3c07395c21478975a7f31c7": {
        "privateKey": "46cd8dbd7fe1522d8d30e2307be849e364edbe624b082f49d6c3c1559f4f746a",
        "comment": "test account3, have eth balance e+21",
        "balance": "0x3635C9ADC5DEA00000"
      },
      "0xfb5dee9d6a20b977abace387a31f554ed10cc40d": {
        "privateKey": "eaccef8c167600e62013d133d7e8ca8fb76c2d2755373e948065fe7ec7143ded",
        "comment": "test account4, have eth balance e+21",
        "balance": "0x3635C9ADC5DEA00000"
      },
      "0x8f7019a87da3e509daa0294dfcb3bb5df9b66935": {
        "privateKey": "0c4803c5510568f8ba32c479ac9233d02b85535fb9fc61fec3f5c8139129d52a",
        "comment": "test account5, have eth balance e+21",
        "balance": "0x3635C9ADC5DEA00000"
      },
      "0x53393d84371736ca27917c1ed5b27b28e1c7d844": {
        "privateKey": "c432932f724de18547e9a0a1a0d95f6a14cda9859b036588a458f19674fe9295",
        "comment": "test account6, have eth balance e+21",
        "balance": "0x3635C9ADC5DEA00000"
      },
      "0x1a91ff668db2358a1198f2f49f30e0983414efbc": {
        "privateKey": "e7684c9cf265fe237bdbd529e14c7ef76aa6e6ebfd6ec8d79f8e55bbb8012a35",
        "comment": "test account7, have eth balance e+21",
        "balance": "0x3635C9ADC5DEA00000"
      },
      "0xa5ae30c1472cabc83b06b12af8ebbafbebeb09be": {
        "privateKey": "33cd09c253306311273820b08b4f8fb0be09cdbf293b026b25b8ffada12f50a0",
        "comment": "test account8, have eth balance e+21",
        "balance": "0x3635C9ADC5DEA00000"
      },
      "0x270c73afee074bd868974d1c52b664e7ea08a77e": {
        "privateKey": "66728bace03ecfcc93f6fd2af865ae8c7675768c7f19b4f0521710b9c5b98891",
        "comment": "test account9, have eth balance e+21",
        "balance": "0x3635C9ADC5DEA00000"
      },
      "0x5754aeb3f6925108f2518565d599095e8c89fb9a": {
        "privateKey": "dd8ff6cb8e1f9a509fe3ec17c1d5832d1edfedf1957a3cc5e56d06c12faed2d8",
        "comment": "test account9, have eth balance e+21",
        "balance": "0x3635C9ADC5DEA00000"
      }
    }
  },
  "blockchain": {
    "nodes": {
      "generate": true,
      "count": 5
    }
  }
}